[
    {
        "text": "Introduction",
        "items": [
            {"text": "Introduction", "link": "/interview/"}
        ]
    },
    {
        "text": "Data Structures",
        "items": [
            {"text": "Introduction", "link": "/interview/ds/"},
            {"text": "Memory", "link": "/interview/ds/memory"},
            {"text": "Complexity", "link": "/interview/ds/complexity"},
            {"text": "Arrays", "link": "/interview/ds/array"},
            {"text": "Linked Lists", "link": "/interview/ds/linkedlist"},
            {"text": "Hash Tables", "link": "/interview/ds/hash"},
            {"text": "Stacks and Queues", "link": "/interview/ds/stackqueue"},
            {"text": "Strings", "link": "/interview/ds/string"},
            {"text": "Graphs", "link": "/interview/ds/graph"},
            {"text": "Trees", "link": "/interview/ds/tree"},
            {"text": "Heap", "link": "/interview/ds/heap"},
            {"text": "Patterns", "link": "/interview/ds/patterns"}
        ]
    },
    {
        "text": "System Design",
        "items": [
            {"text": "Basics of the Internet", "link": "/interview/sd/basics"},
            {"text": "Efficiency", "link": "/interview/sd/efficiency"},
            {"text": "Scaling", "link": "/interview/sd/scaling"},
            {"text": "Improvements", "link": "/interview/sd/improvements"},
            {"text": "Implementation", "link": "/interview/sd/impl"}
        ]
    },
    {
        "text": "Design Patterns",
        "items": [
            {"text": "Principles", "link": "/interview/patterns/index"},
            {"text": "Creational", "items": [
                {"text": "Builder", "link": "/interview/patterns/creation/builder"},
                {"text": "Factory", "link": "/interview/patterns/creation/factory"},
                {"text": "Prototype", "link": "/interview/patterns/creation/prototype"},
                {"text": "Singleton", "link": "/interview/patterns/creation/singleton"}
            ]}, 
            {"text": "Structural", "items": [
                {"text": "Adapter", "link": "/interview/patterns/structure/adapter"},
                {"text": "Bridge", "link": "/interview/patterns/structure/bridge"},
                {"text": "Composite", "link": "/interview/patterns/structure/composite"},
                {"text": "Decorator", "link": "/interview/patterns/structure/decorator"},
                {"text": "Facade", "link": "/interview/patterns/structure/facade"}
            ]}
        ]
    },
    {
        "text": "Languages Specific",
        "items": [
            {"text": "Python", "link": "/interview/languages/python"},
            {"text": "Javascript", "link": "/interview/languages/javascript"}
        ]
    }
]